Scoreboard for match_id=15, group=1, team=2
== Diamond ==
#1 (200251534) kairi
== Gold ==
#2 (200263675) Shawn.Shirley
#3 (200263419) Gwenwy
#4 (200258619) Bhoxz koro
#5 (200247137) PhantomKKawaii
#6 (200231526) kwshrv_n1
#7 (200261556) Nimiko B.
#8 (200238443) Cynister
#9 (200255795) Owlcookie
#10 (200101734) Sagume Kishin
#11 (200250159) Ailen
== Silver ==
#12 (200251199) Marvelo
#13 (200260148) Jocelyn
#14 (200255393) Ky
#15 (200243136) shimoto
#16 (200254248) Prerry
#17 (200241235) AngelicLolita
#18 (200105237) angel.scarlet
#19 (200254884) Misuria
#20 (200258236) MereTD
#21 (200181388) Aurelius
#22 (200261594) 鬼冥沫黎
#23 (200202550) ash3800
#24 (200182727) Monsieur Snob
#25 (200142303) Gumi.Noodle
#26 (200234490) jirach
#27 (200145779) Takamine
#28 (200248470) Sax
#29 (200260883) Futoku
#30 (200158625) Ic3ris
#31 (200248297) Hikari
== Bronze ==
#32 (200137221) CandyStarfish
#33 (200256281) Yue-san
#34 (200172104) Kimimi
#35 (200249308) rose
#36 (200263172) keena m
#37 (200199139) WendyJellalMavis
#38 (200234009) LilyWolf
#39 (200020106) Kuromanju
#40 (200240252) Sinon Asada
#41 (200224875) Michiru
#42 (200217677) Inori
#43 (200214280) CherryLie
#44 (200204546) booty-slayer
#45 (200163766) Esmeralda 
#46 (200173407) Teburu
#47 (200168374) Luminatie
#48 (200257104) Blood·Leo
#49 (200247572) KaisKiwi
#50 (200254815) Fizzgig
#51 (200234464) Sisilena
#52 (200224563) utena
#53 (200253414) katsune
#54 (200184715) Nooxym
#55 (200199369) White
#56 (200252444) Setsuen
#57 (200255141) Prism.Ignativs
#58 (200187891) Darbs
#59 (200205886) Dhorl 
#60 (200103083) Taylor Strimple
#61 (200240508) 万事屋的小马甲
#62 (200250039) Denisa
#63 (200185549) SxyLawnGnome
#64 (200233902) Happiness 21
#65 (200262835) Kamaia
#66 (200250697) BloodyGoddess
#67 (200217076) Himawari
#68 (200193070) Rozen Maiden
#69 (200212878) Ana
#70 (200134615) DestRaz
#71 (200103022) RusskiZadrot
#72 (200114288) Kuraiko.chan
#73 (200256807) Riku
#74 (200046473) Coraline 
#75 (200035276) Elena
#76 (200132414) Termagant
#77 (200239599) kevin3gyu
#78 (200125911) lucas lino
#79 (200242421) isabelle.cat
#80 (200227049) Kazunari
#81 (200223511) mitsu ha 
#82 (200231565) Shirin
#83 (200077192) MrBeanPie
#84 (200259674) Aki
#85 (200142609) Gods·Shawn
#86 (200256217) Mahoro
#87 (200241906) Peter kun
#88 (200232299) Hyun
#89 (200175384) Rain
#90 (200253486) I Need Healing 
#91 (200229197) Doctor Llama 
#92 (200232756) Firefly Sweet
#93 (200219673) rania
#94 (200236340) Airiin
#95 (200111409)  Anime Gamer 47
#96 (200208482) Zalika
#97 (200127929) Shadow
#98 (200190637) Jazzy
#99 (200224833) diarmuid
#100 (200144140) Emilia Crossford
#101 (200226102) Jason
#102 (200096209) Sotres
#103 (200195979) YonaChu
#104 (200124011) Shi Jae
#105 (200153418) Seaottersans
#106 (200181185) Aurelius
#107 (200134943) Himea
#108 (200034875) Bella
#109 (200184144) Blood·Alex
#110 (200253201) Nyan
#111 (200252113) Mochi-chan 
#112 (200185581) Prpr·Phoebe

